unique_id,citation_influence_label
CCT1,1
CCT2,0
CCT3,0
CCT4,1
CCT5,0
CCT6,0
CCT7,0
CCT8,0
CCT9,1
CCT10,1
CCT11,1
CCT12,0
CCT13,0
CCT14,0
CCT15,1
CCT16,1
CCT17,1
CCT18,1
CCT19,1
CCT20,0
CCT21,0
CCT22,0
CCT23,0
CCT24,1
CCT25,1
CCT26,1
CCT27,0
CCT28,0
CCT29,0
CCT30,0
CCT31,0
CCT32,1
CCT33,0
CCT34,0
CCT35,1
CCT36,0
CCT37,0
CCT38,0
CCT39,0
CCT40,0
CCT41,1
CCT42,0
CCT43,1
CCT44,0
CCT45,1
CCT46,0
CCT47,0
CCT48,0
CCT49,1
CCT50,1
CCT51,1
CCT52,0
CCT53,0
CCT54,0
CCT55,1
CCT56,1
CCT57,0
CCT58,0
CCT59,0
CCT60,1
CCT61,1
CCT62,1
CCT63,1
CCT64,0
CCT65,0
CCT66,0
CCT67,1
CCT68,0
CCT69,0
CCT70,1
CCT71,0
CCT72,0
CCT73,1
CCT74,1
CCT75,0
CCT76,0
CCT77,1
CCT78,0
CCT79,1
CCT80,0
CCT81,0
CCT82,0
CCT83,0
CCT84,1
CCT85,0
CCT86,0
CCT87,0
CCT88,0
CCT89,0
CCT90,1
CCT91,1
CCT92,1
CCT93,0
CCT94,1
CCT95,1
CCT96,1
CCT97,1
CCT98,1
CCT99,0
CCT100,0
CCT101,0
CCT102,0
CCT103,1
CCT104,1
CCT105,0
CCT106,0
CCT107,0
CCT108,0
CCT109,1
CCT110,0
CCT111,1
CCT112,1
CCT113,0
CCT114,1
CCT115,1
CCT116,1
CCT117,0
CCT118,1
CCT119,0
CCT120,0
CCT121,0
CCT122,0
CCT123,0
CCT124,0
CCT125,0
CCT126,1
CCT127,0
CCT128,1
CCT129,1
CCT130,1
CCT131,0
CCT132,1
CCT133,0
CCT134,1
CCT135,0
CCT136,0
CCT137,0
CCT138,0
CCT139,0
CCT140,1
CCT141,0
CCT142,1
CCT143,1
CCT144,0
CCT145,0
CCT146,1
CCT147,1
CCT148,1
CCT149,0
CCT150,0
CCT151,0
CCT152,1
CCT153,1
CCT154,1
CCT155,1
CCT156,1
CCT157,0
CCT158,0
CCT159,0
CCT160,1
CCT161,1
CCT162,1
CCT163,1
CCT164,0
CCT165,1
CCT166,1
CCT167,1
CCT168,1
CCT169,1
CCT170,1
CCT171,1
CCT172,1
CCT173,0
CCT174,0
CCT175,1
CCT176,1
CCT177,1
CCT178,0
CCT179,0
CCT180,1
CCT181,0
CCT182,0
CCT183,0
CCT184,1
CCT185,0
CCT186,1
CCT187,1
CCT188,0
CCT189,1
CCT190,0
CCT191,1
CCT192,1
CCT193,1
CCT194,1
CCT195,0
CCT196,0
CCT197,1
CCT198,0
CCT199,1
CCT200,0
CCT201,0
CCT202,0
CCT203,1
CCT204,0
CCT205,0
CCT206,0
CCT207,0
CCT208,0
CCT209,0
CCT210,1
CCT211,1
CCT212,1
CCT213,1
CCT214,1
CCT215,1
CCT216,0
CCT217,1
CCT218,0
CCT219,0
CCT220,0
CCT221,1
CCT222,1
CCT223,1
CCT224,1
CCT225,0
CCT226,1
CCT227,1
CCT228,0
CCT229,0
CCT230,0
CCT231,1
CCT232,1
CCT233,1
CCT234,0
CCT235,1
CCT236,0
CCT237,0
CCT238,0
CCT239,0
CCT240,1
CCT241,0
CCT242,0
CCT243,0
CCT244,0
CCT245,1
CCT246,1
CCT247,1
CCT248,1
CCT249,0
CCT250,1
CCT251,1
CCT252,0
CCT253,1
CCT254,1
CCT255,1
CCT256,1
CCT257,1
CCT258,0
CCT259,0
CCT260,1
CCT261,1
CCT262,1
CCT263,1
CCT264,1
CCT265,1
CCT266,0
CCT267,0
CCT268,0
CCT269,1
CCT270,0
CCT271,1
CCT272,0
CCT273,0
CCT274,0
CCT275,0
CCT276,1
CCT277,0
CCT278,0
CCT279,1
CCT280,0
CCT281,1
CCT282,0
CCT283,0
CCT284,1
CCT285,1
CCT286,1
CCT287,0
CCT288,0
CCT289,1
CCT290,0
CCT291,0
CCT292,1
CCT293,1
CCT294,1
CCT295,1
CCT296,1
CCT297,1
CCT298,1
CCT299,0
CCT300,0
CCT301,0
CCT302,0
CCT303,1
CCT304,0
CCT305,0
CCT306,0
CCT307,0
CCT308,1
CCT309,1
CCT310,1
CCT311,0
CCT312,1
CCT313,1
CCT314,1
CCT315,1
CCT316,1
CCT317,1
CCT318,1
CCT319,1
CCT320,1
CCT321,1
CCT322,1
CCT323,1
CCT324,0
CCT325,1
CCT326,1
CCT327,1
CCT328,1
CCT329,1
CCT330,1
CCT331,1
CCT332,1
CCT333,0
CCT334,1
CCT335,0
CCT336,0
CCT337,0
CCT338,0
CCT339,0
CCT340,1
CCT341,0
CCT342,0
CCT343,0
CCT344,0
CCT345,0
CCT346,0
CCT347,0
CCT348,0
CCT349,0
CCT350,1
CCT351,0
CCT352,0
CCT353,0
CCT354,1
CCT355,1
CCT356,1
CCT357,0
CCT358,1
CCT359,0
CCT360,1
CCT361,0
CCT362,0
CCT363,1
CCT364,1
CCT365,1
CCT366,0
CCT367,1
CCT368,0
CCT369,1
CCT370,1
CCT371,1
CCT372,0
CCT373,0
CCT374,1
CCT375,1
CCT376,0
CCT377,0
CCT378,0
CCT379,1
CCT380,0
CCT381,1
CCT382,0
CCT383,0
CCT384,1
CCT385,1
CCT386,0
CCT387,1
CCT388,1
CCT389,1
CCT390,0
CCT391,1
CCT392,1
CCT393,1
CCT394,0
CCT395,1
CCT396,1
CCT397,0
CCT398,0
CCT399,1
CCT400,0
CCT401,1
CCT402,1
CCT403,1
CCT404,1
CCT405,0
CCT406,1
CCT407,0
CCT408,1
CCT409,1
CCT410,0
CCT411,0
CCT412,0
CCT413,0
CCT414,0
CCT415,0
CCT416,1
CCT417,0
CCT418,0
CCT419,0
CCT420,0
CCT421,0
CCT422,0
CCT423,0
CCT424,0
CCT425,1
CCT426,0
CCT427,1
CCT428,0
CCT429,0
CCT430,0
CCT431,1
CCT432,0
CCT433,0
CCT434,1
CCT435,1
CCT436,0
CCT437,0
CCT438,1
CCT439,1
CCT440,0
CCT441,0
CCT442,1
CCT443,1
CCT444,0
CCT445,1
CCT446,1
CCT447,1
CCT448,1
CCT449,1
CCT450,0
CCT451,1
CCT452,0
CCT453,1
CCT454,0
CCT455,1
CCT456,0
CCT457,0
CCT458,0
CCT459,1
CCT460,1
CCT461,0
CCT462,1
CCT463,1
CCT464,0
CCT465,0
CCT466,1
CCT467,1
CCT468,1
CCT469,1
CCT470,0
CCT471,1
CCT472,1
CCT473,1
CCT474,0
CCT475,0
CCT476,1
CCT477,1
CCT478,1
CCT479,1
CCT480,1
CCT481,0
CCT482,1
CCT483,1
CCT484,1
CCT485,0
CCT486,1
CCT487,0
CCT488,1
CCT489,0
CCT490,0
CCT491,1
CCT492,1
CCT493,1
CCT494,0
CCT495,0
CCT496,1
CCT497,1
CCT498,1
CCT499,1
CCT500,0
CCT501,0
CCT502,0
CCT503,0
CCT504,0
CCT505,1
CCT506,0
CCT507,0
CCT508,1
CCT509,0
CCT510,0
CCT511,1
CCT512,0
CCT513,0
CCT514,1
CCT515,0
CCT516,1
CCT517,0
CCT518,1
CCT519,0
CCT520,1
CCT521,0
CCT522,1
CCT523,0
CCT524,1
CCT525,0
CCT526,0
CCT527,1
CCT528,1
CCT529,1
CCT530,1
CCT531,0
CCT532,1
CCT533,1
CCT534,1
CCT535,0
CCT536,1
CCT537,1
CCT538,0
CCT539,1
CCT540,0
CCT541,0
CCT542,1
CCT543,0
CCT544,0
CCT545,0
CCT546,0
CCT547,0
CCT548,1
CCT549,1
CCT550,0
CCT551,1
CCT552,1
CCT553,1
CCT554,0
CCT555,0
CCT556,1
CCT557,0
CCT558,0
CCT559,0
CCT560,0
CCT561,0
CCT562,0
CCT563,1
CCT564,0
CCT565,0
CCT566,0
CCT567,0
CCT568,1
CCT569,0
CCT570,1
CCT571,0
CCT572,1
CCT573,1
CCT574,1
CCT575,1
CCT576,1
CCT577,0
CCT578,1
CCT579,1
CCT580,1
CCT581,0
CCT582,0
CCT583,0
CCT584,0
CCT585,1
CCT586,1
CCT587,0
CCT588,1
CCT589,1
CCT590,0
CCT591,0
CCT592,0
CCT593,0
CCT594,0
CCT595,0
CCT596,0
CCT597,0
CCT598,1
CCT599,1
CCT600,1
CCT601,1
CCT602,1
CCT603,1
CCT604,1
CCT605,1
CCT606,0
CCT607,0
CCT608,0
CCT609,0
CCT610,1
CCT611,0
CCT612,0
CCT613,1
CCT614,0
CCT615,0
CCT616,1
CCT617,1
CCT618,1
CCT619,1
CCT620,0
CCT621,0
CCT622,1
CCT623,1
CCT624,1
CCT625,1
CCT626,0
CCT627,0
CCT628,1
CCT629,1
CCT630,1
CCT631,1
CCT632,1
CCT633,0
CCT634,1
CCT635,1
CCT636,1
CCT637,1
CCT638,1
CCT639,0
CCT640,1
CCT641,1
CCT642,0
CCT643,0
CCT644,0
CCT645,0
CCT646,0
CCT647,0
CCT648,1
CCT649,1
CCT650,1
CCT651,1
CCT652,1
CCT653,1
CCT654,0
CCT655,1
CCT656,1
CCT657,1
CCT658,0
CCT659,1
CCT660,1
CCT661,1
CCT662,1
CCT663,1
CCT664,1
CCT665,1
CCT666,1
CCT667,1
CCT668,1
CCT669,0
CCT670,0
CCT671,1
CCT672,0
CCT673,1
CCT674,1
CCT675,0
CCT676,0
CCT677,0
CCT678,0
CCT679,0
CCT680,0
CCT681,1
CCT682,1
CCT683,1
CCT684,0
CCT685,1
CCT686,0
CCT687,1
CCT688,0
CCT689,1
CCT690,0
CCT691,0
CCT692,0
CCT693,0
CCT694,0
CCT695,0
CCT696,0
CCT697,1
CCT698,0
CCT699,0
CCT700,0
CCT701,0
CCT702,0
CCT703,0
CCT704,1
CCT705,1
CCT706,0
CCT707,0
CCT708,1
CCT709,0
CCT710,0
CCT711,1
CCT712,0
CCT713,1
CCT714,1
CCT715,0
CCT716,1
CCT717,0
CCT718,1
CCT719,1
CCT720,0
CCT721,0
CCT722,0
CCT723,1
CCT724,1
CCT725,0
CCT726,1
CCT727,0
CCT728,0
CCT729,1
CCT730,0
CCT731,1
CCT732,0
CCT733,1
CCT734,0
CCT735,1
CCT736,0
CCT737,0
CCT738,0
CCT739,0
CCT740,0
CCT741,0
CCT742,1
CCT743,0
CCT744,0
CCT745,0
CCT746,0
CCT747,0
CCT748,1
CCT749,0
CCT750,0
CCT751,0
CCT752,1
CCT753,0
CCT754,0
CCT755,0
CCT756,1
CCT757,0
CCT758,1
CCT759,1
CCT760,0
CCT761,1
CCT762,1
CCT763,0
CCT764,1
CCT765,0
CCT766,0
CCT767,0
CCT768,0
CCT769,1
CCT770,1
CCT771,1
CCT772,1
CCT773,0
CCT774,0
CCT775,1
CCT776,1
CCT777,0
CCT778,0
CCT779,1
CCT780,1
CCT781,1
CCT782,0
CCT783,0
CCT784,1
CCT785,1
CCT786,0
CCT787,1
CCT788,1
CCT789,1
CCT790,1
CCT791,1
CCT792,1
CCT793,0
CCT794,1
CCT795,1
CCT796,1
CCT797,1
CCT798,1
CCT799,0
CCT800,1
CCT801,1
CCT802,0
CCT803,1
CCT804,1
CCT805,0
CCT806,1
CCT807,1
CCT808,1
CCT809,1
CCT810,1
CCT811,0
CCT812,0
CCT813,0
CCT814,0
CCT815,0
CCT816,0
CCT817,1
CCT818,0
CCT819,0
CCT820,0
CCT821,1
CCT822,0
CCT823,0
CCT824,0
CCT825,1
CCT826,1
CCT827,1
CCT828,1
CCT829,1
CCT830,0
CCT831,0
CCT832,0
CCT833,1
CCT834,1
CCT835,0
CCT836,0
CCT837,0
CCT838,0
CCT839,0
CCT840,1
CCT841,1
CCT842,1
CCT843,0
CCT844,0
CCT845,0
CCT846,1
CCT847,0
CCT848,1
CCT849,0
CCT850,0
CCT851,0
CCT852,0
CCT853,0
CCT854,0
CCT855,0
CCT856,1
CCT857,1
CCT858,1
CCT859,0
CCT860,1
CCT861,1
CCT862,0
CCT863,1
CCT864,1
CCT865,1
CCT866,0
CCT867,1
CCT868,0
CCT869,0
CCT870,1
CCT871,0
CCT872,1
CCT873,1
CCT874,1
CCT875,0
CCT876,1
CCT877,0
CCT878,1
CCT879,1
CCT880,0
CCT881,1
CCT882,1
CCT883,0
CCT884,1
CCT885,0
CCT886,1
CCT887,1
CCT888,0
CCT889,0
CCT890,1
CCT891,0
CCT892,0
CCT893,0
CCT894,1
CCT895,1
CCT896,0
CCT897,1
CCT898,1
CCT899,0
CCT900,1
CCT901,0
CCT902,0
CCT903,1
CCT904,0
CCT905,0
CCT906,1
CCT907,0
CCT908,0
CCT909,1
CCT910,1
CCT911,0
CCT912,0
CCT913,1
CCT914,1
CCT915,1
CCT916,1
CCT917,1
CCT918,0
CCT919,0
CCT920,0
CCT921,0
CCT922,0
CCT923,1
CCT924,0
CCT925,0
CCT926,1
CCT927,0
CCT928,0
CCT929,1
CCT930,0
CCT931,0
CCT932,0
CCT933,0
CCT934,0
CCT935,1
CCT936,0
CCT937,1
CCT938,1
CCT939,0
CCT940,0
CCT941,0
CCT942,0
CCT943,0
CCT944,1
CCT945,1
CCT946,1
CCT947,1
CCT948,0
CCT949,0
CCT950,0
CCT951,1
CCT952,1
CCT953,0
CCT954,0
CCT955,0
CCT956,1
CCT957,0
CCT958,0
CCT959,0
CCT960,1
CCT961,1
CCT962,0
CCT963,0
CCT964,1
CCT965,1
CCT966,1
CCT967,0
CCT968,1
CCT969,1
CCT970,0
CCT971,0
CCT972,1
CCT973,1
CCT974,1
CCT975,0
CCT976,1
CCT977,1
CCT978,1
CCT979,1
CCT980,1
CCT981,0
CCT982,0
CCT983,1
CCT984,1
CCT985,0
CCT986,1
CCT987,1
CCT988,1
CCT989,1
CCT990,1
CCT991,0
CCT992,0
CCT993,0
CCT994,1
CCT995,0
CCT996,1
CCT997,0
CCT998,1
CCT999,1
CCT1000,1
